<?xml version="1.0" encoding="UTF-8" standalone="no"?>
<!-- Created with Inkscape (http://www.inkscape.org/) -->

<svg xmlns="http://www.w3.org/2000/svg" id="svg-b9b3" style="enable-background:new 0 0 462.525 462.525; fill: #fff" viewBox="0 0 354.053 354.053" class="u-svg-content"><path d="m13.852 316.482 4.207 3.163c7.541 5.653 16.764 8.668 26.105 8.668 2.195 0 4.396-.201 6.585-.543 7.913 15.873 24.182 26.283 42.138 26.283h166.34c18.198 0 34.52-10.533 42.351-26.642.431.089.832.248 1.269.325 2.343.389 4.709.584 7.063.584 9.335 0 18.564-3.015 26.094-8.668l4.213-3.163c5.258-3.942 9.129-9.323 11.206-15.555 2.614-7.836 2.13-16.275-1.363-23.763l-36.88-79.036c-1.269-2.714-4.373-4.048-7.217-3.104l-12.321 4.107-11.418-93.635-.142.018c.035-6.644-1.157-13.336-3.617-19.738l-14.375-37.364c-4.349-11.312-15.419-18.912-27.539-18.912h-25.628c-2.82-16.72-17.359-29.507-34.873-29.507s-32.048 12.787-34.874 29.504h-25.628c-12.12 0-23.185 7.6-27.539 18.912l-14.369 37.365c-2.467 6.408-3.653 13.094-3.623 19.738l-.147-.018-11.341 93.01-10.439-3.482c-2.862-.944-5.942.389-7.217 3.104l-36.881 79.037c-3.493 7.488-3.977 15.926-1.363 23.763 2.089 6.231 5.966 11.607 11.223 15.549zm325.517-34.332c2.213 4.744 2.52 10.079.862 15.041-1.316 3.948-3.771 7.353-7.093 9.843l-4.213 3.163c-6.875 5.157-15.679 7.299-24.141 5.889-8.94-1.487-15.879-8.822-16.882-17.827l-9.087-81.745 25.893-8.627zm-86.289-229.502 14.369 37.364c5.122 13.312 3.228 28.183-5.063 39.79-6.491 9.093-16.422 15.177-27.321 17.059v-12.781c3.511-2.048 5.901-5.812 5.901-10.161v-11.802c0-4.349-2.39-8.114-5.901-10.161v-60.656h1.493c7.269 0 13.908 4.562 16.522 11.348zm-53.421 94.868h-47.207v-13.442c3.511-2.048 5.901-5.812 5.901-10.161v-11.802c0-4.349-2.39-8.114-5.901-10.161v-60.65h47.207v60.649c-3.511 2.048-5.901 5.812-5.901 10.161v11.802c0 4.349 2.39 8.114 5.901 10.161zm-76.711-23.598v-11.808h23.604v11.802zm17.702-23.609h-11.802v-59.009h11.802zm-11.801 35.405h11.802v44.764l-5.901 5.901-5.901-5.901zm76.711-11.796v-11.808h23.604v11.802zm17.703-23.609h-11.802v-59.009h11.802zm-11.802 35.405h11.802v44.764l-5.901 5.901-5.901-5.901zm-35.405-123.918c10.964 0 20.128 7.553 22.766 17.703h-45.532c2.638-10.15 11.802-17.703 22.766-17.703zm-91.393 78.21 14.369-37.364c2.614-6.786 9.253-11.347 16.522-11.347h1.493v60.649c-3.511 2.048-5.901 5.812-5.901 10.161v11.802c0 4.349 2.39 8.114 5.901 10.161v12.781c-10.899-1.882-20.83-7.966-27.321-17.065-8.291-11.589-10.185-26.466-5.063-39.778zm-6.338 43.773c.602.962 1.133 1.947 1.794 2.874 8.698 12.179 22.211 20.187 36.928 22.164v24.105c0 1.564.62 3.068 1.729 4.172l11.802 11.802c1.151 1.151 2.661 1.729 4.172 1.729s3.021-.578 4.172-1.729l11.802-11.802c1.109-1.109 1.729-2.608 1.729-4.172v-23.604h47.207v23.604c0 1.564.62 3.068 1.729 4.172l11.802 11.802c1.151 1.151 2.661 1.729 4.172 1.729s3.021-.578 4.172-1.729l11.802-11.802c1.109-1.109 1.729-2.608 1.729-4.172v-24.105c14.711-1.971 28.23-9.978 36.922-22.158.667-.932 1.198-1.918 1.8-2.88l8.438 69.164-11.66 3.889c-2.638.879-4.302 3.481-3.995 6.249l9.613 86.483c1.08 9.754 6.633 18.181 14.534 23.326-5.989 11.737-18.068 19.355-31.487 19.355h-166.342c-12.976 0-24.843-7.217-30.997-18.399 8.698-5.01 14.858-13.92 16.009-24.282l9.607-86.483c.307-2.767-1.357-5.37-3.995-6.249l-13.543-4.514zm-63.623 148.371 34.662-74.268 25.893 8.627-9.081 81.745c-1.003 9.005-7.943 16.34-16.877 17.827-8.491 1.404-17.278-.738-24.146-5.889l-4.207-3.163c-3.328-2.49-5.783-5.901-7.099-9.843-1.665-4.951-1.358-10.291.855-15.036z"></path><path d="m140.65 330.443h70.811c13.017 0 23.604-10.586 23.604-23.604v-47.207l7.081 9.441 9.441-7.081-16.522-22.028v-3.936c0-13.017-10.586-23.604-23.604-23.604h-70.811c-13.017 0-23.604 10.586-23.604 23.604v70.811c.001 13.018 10.587 23.604 23.604 23.604zm-11.801-94.414c0-6.509 5.293-11.802 11.802-11.802h70.811c6.509 0 11.802 5.293 11.802 11.802v70.811c0 6.509-5.293 11.802-11.802 11.802h-70.812c-6.509 0-11.802-5.293-11.802-11.802v-70.811z"></path><path d="m140.65 241.93h70.811v11.802h-70.811z"></path></svg>